%YAML 1.1
%TAG !u! tag:unity3d.com,2011:
--- !u!1 &1089788738902369500
GameObject:
  m_ObjectHideFlags: 0
  m_CorrespondingSourceObject: {fileID: 0}
  m_PrefabInstance: {fileID: 0}
  m_PrefabAsset: {fileID: 0}
  serializedVersion: 6
  m_Component:
  - component: {fileID: 7624550048794370853}
  - component: {fileID: 2042036082223110765}
  m_Layer: 0
  m_Name: ProjectContext
  m_TagString: Untagged
  m_Icon: {fileID: 0}
  m_NavMeshLayer: 0
  m_StaticEditorFlags: 0
  m_IsActive: 1
--- !u!4 &7624550048794370853
Transform:
  m_ObjectHideFlags: 0
  m_CorrespondingSourceObject: {fileID: 0}
  m_PrefabInstance: {fileID: 0}
  m_PrefabAsset: {fileID: 0}
  m_GameObject: {fileID: 1089788738902369500}
  m_LocalRotation: {x: 0, y: 0, z: 0, w: 1}
  m_LocalPosition: {x: 0, y: 0, z: 0}
  m_LocalScale: {x: 1, y: 1, z: 1}
  m_Children: []
  m_Father: {fileID: 0}
  m_RootOrder: 0
  m_LocalEulerAnglesHint: {x: 0, y: 0, z: 0}
--- !u!114 &2042036082223110765
MonoBehaviour:
  m_ObjectHideFlags: 0
  m_CorrespondingSourceObject: {fileID: 0}
  m_PrefabInstance: {fileID: 0}
  m_PrefabAsset: {fileID: 0}
  m_GameObject: {fileID: 1089788738902369500}
  m_Enabled: 1
  m_EditorHideFlags: 0
  m_Script: {fileID: 11500000, guid: a4e6589720da476459dc6dd71624b071, type: 3}
  m_Name: 
  m_EditorClassIdentifier: 
  _scriptableObjectInstallers:
  - {fileID: 11400000, guid: 304a01cb3b8b478419730550e9c7ceb7, type: 2}
  _monoInstallers: []
  _installerPrefabs:
  - {fileID: 2454818185373111361, guid: e1e6392c9a02bf844b2357a4084df5f3, type: 3}
  - {fileID: 3168433615085803690, guid: b2cd935dad9be1243805ad5c1031b94c, type: 3}
  _parentNewObjectsUnderContext: 1
  _editorReflectionBakingCoverageMode: 2
  _buildsReflectionBakingCoverageMode: 2
  _settings:
    _ensureDeterministicDestructionOrderOnApplicationQuit: 0
    _displayWarningWhenResolvingDuringInstall: 1
    _validationRootResolveMethod: 0
    _validationErrorResponse: 0
    _signalSettings:
      _defaultSyncMode: 0
      _missingHandlerDefaultResponse: 2
      _requireStrictUnsubscribe: 0
      _defaultAsyncTickPriority: 1
